{
  "data": [
    {
      "communityId": 1,
      "title": "워터밤 가면 좋겠다",
      "body": "워터밤은 고글필수지 이번행사 라인업 보니까 존잼 차갑고",
      "category": "당일치기",
      "createdAt": "2023-07-14T15:32:43.140087",
      "updatedAt": "2023-07-14T15:32:43.140087",
      "userInfo": { "nickname": "복실한 사모예드" },
      "views": 3,
      "liked": 3
    },
    {
      "communityId": 2,
      "title": "워터밤 가면 좋겠다",
      "body": "워터밤은 고글필수지 이번행사 라인업 보니까 존잼 차갑고",
      "category": "당일치기",
      "createdAt": "2023-07-14T15:32:43.140087",
      "updatedAt": "2023-07-14T15:32:43.140087",
      "userInfo": { "nickname": "복실한 사모예드" },
      "views": 3,
      "liked": 3
    },
    {
      "communityId": 3,
      "title": "워터밤 가면 좋겠다",
      "body": "워터밤은 고글필수지 이번행사 라인업 보니까 존잼 차갑고",
      "category": "당일치기",
      "createdAt": "2023-07-14T15:32:43.140087",
      "updatedAt": "2023-07-14T15:32:43.140087",
      "userInfo": { "nickname": "복실한 사모예드" },
      "views": 3,
      "liked": 3
    },
    {
      "communityId": 4,
      "title": "워터밤 가면 좋겠다",
      "body": "워터밤은 고글필수지 이번행사 라인업 보니까 존잼 차갑고",
      "category": "당일치기",
      "createdAt": "2023-07-14T15:32:43.140087",
      "updatedAt": "2023-07-14T15:32:43.140087",
      "userInfo": { "nickname": "복실한 사모예드" },
      "views": 3,
      "liked": 3
    },
    {
      "communityId": 5,
      "title": "제목입니 5.",
      "body": "내용입니 5",
      "category": "Daily",
      "createdAt": "2023-07-14T15:32:34.584387",
      "updatedAt": "2023-07-14T15:32:34.584387",
      "userInfo": {
        "nickname": "복실한 사모예드"
      },
      "views": 0,
      "liked": 0
    }
  ],
  "pageInfo": {
    "page": 1,
    "size": 5,
    "totalElements": 10,
    "totalPages": 3
  }
}
