{
  "data": [
    {
      "communityId":21,
      "title":"제목입니다21",
      "body":"내용입니다21",
      "category":"Daily",
      "createdAt":"2023-07-14T15:32:43.140087",
      "updatedAt":"2023-07-14T15:32:43.140087",
      "userInfo": {"nickname": "joker"},
      "views":0,
      "liked":0
    },
    {
      "communityId":22,
      "title":"제목입니다22.",
      "body":"내용입니다22",
      "category":"Daily",
      "createdAt":"2023-07-14T15:32:34.584387",
      "updatedAt":"2023-07-14T15:32:34.584387",
      "userInfo": {"nickname": "joker"},
      "views":0,
      "liked":0
    },
    {
      "communityId":23,
      "title":"제목입니다23.",
      "body":"내용입니다23",
      "category":"Daily",
      "createdAt":"2023-07-14T15:31:26.522173",
      "updatedAt":"2023-07-14T15:36:46.710613",
      "userInfo": {"nickname": "joker"},
      "views":1,
      "liked":0
    }
  ],
  "pageInfo": {
    "page":3,
    "size":10,
    "totalElements":23,
    "totalPages":3
  }
}
