{
  "data": [
    {
      "communityId":11,
      "title":"제목입니다11",
      "body":"내용입니다11",
      "category":"Daily",
      "createdAt":"2023-07-14T15:32:43.140087",
      "updatedAt":"2023-07-14T15:32:43.140087",
      "userInfo": {"nickname": "joker"},
      "views":0,
      "liked":0
    },
    {
      "communityId":12,
      "title":"제목입니다12.",
      "body":"내용입니다12",
      "category":"Daily",
      "createdAt":"2023-07-14T15:32:34.584387",
      "updatedAt":"2023-07-14T15:32:34.584387",
      "userInfo": {"nickname": "joker"},
      "views":0,
      "liked":0
    },
    {
      "communityId":13,
      "title":"제목입니다13.",
      "body":"내용입니다13",
      "category":"Daily",
      "createdAt":"2023-07-14T15:31:26.522173",
      "updatedAt":"2023-07-14T15:36:46.710613",
      "userInfo": {"nickname": "joker"},
      "views":1,
      "liked":0
    },
    {
      "communityId": 14,
      "title": "제목입니다14.",
      "body": "내용입니다14",
      "category": "Daily",
      "createdAt": "2023-07-14T15:32:34.584387",
      "updatedAt": "2023-07-14T15:32:34.584387",
      "userInfo": {
        "nickname": "joker"
      },
      "views": 0,
      "liked": 0
    },
    {
      "communityId": 15,
      "title": "제목입니 15.",
      "body": "내용입니 15",
      "category": "Daily",
      "createdAt": "2023-07-14T15:32:34.584387",
      "updatedAt": "2023-07-14T15:32:34.584387",
      "userInfo": {
        "nickname": "joker"
      },
      "views": 0,
      "liked": 0
    },
    {
      "communityId": 16,
      "title": "제목입니다16.",
      "body": "내용입니다16",
      "category": "Daily",
      "createdAt": "2023-07-14T15:32:34.584387",
      "updatedAt": "2023-07-14T15:32:34.584387",
      "userInfo": {
        "nickname": "joker"
      },
      "views": 0,
      "liked": 0
    },
    {
      "communityId": 17,
      "title": "제목입니다17.",
      "body": "내용입니다17",
      "category": "Daily",
      "createdAt": "2023-07-14T15:32:34.584387",
      "updatedAt": "2023-07-14T15:32:34.584387",
      "userInfo": {
        "nickname": "joker"
      },
      "views": 0,
      "liked": 0
    },
    {
      "communityId": 18,
      "title": "제목입니다18.",
      "body": "내용입니다18",
      "category": "Daily",
      "createdAt": "2023-07-14T15:32:34.584387",
      "updatedAt": "2023-07-14T15:32:34.584387",
      "userInfo": {
        "nickname": "joker"
      },
      "views": 0,
      "liked": 0
    },
    {
      "communityId": 19,
      "title": "제목입니다19.",
      "body": "내용입니다19",
      "category": "Daily",
      "createdAt": "2023-07-14T15:32:34.584387",
      "updatedAt": "2023-07-14T15:32:34.584387",
      "userInfo": {
        "nickname": "joker"
      },
      "views": 0,
      "liked": 0
    },
    {
      "communityId": 20,
      "title": "제목입니다20.",
      "body": "내용입니다20",
      "category": "Daily",
      "createdAt": "2023-07-14T15:32:34.584387",
      "updatedAt": "2023-07-14T15:32:34.584387",
      "userInfo": {
        "nickname": "joker"
      },
      "views": 0,
      "liked": 0
    }
  ],
  "pageInfo": {
    "page":2,
    "size":10,
    "totalElements":20,
    "totalPages":3
  }
}
